134.76.22.130 - - [30/Sep/2013:22:36:52 +0200] "GET /js/vis/heb/ HTTP/1.1" 200 1678 "http://fontane-nb.dariah.eu/TEI-conf/" "Mozilla/5.0 (X11; Ubuntu; Linux x86_64; rv:24.0) Gecko/20100101 Firefox/24.0"
134.76.22.130 - - [30/Sep/2013:22:36:57 +0200] "GET /js/vis/heb/ HTTP/1.1" 200 1678 "http://fontane-nb.dariah.eu/TEI-conf/" "Mozilla/5.0 (X11; Ubuntu; Linux x86_64; rv:24.0) Gecko/20100101 Firefox/24.0"
134.76.22.130 - - [30/Sep/2013:22:37:05 +0200] "GET /js/vis/heb/ HTTP/1.1" 200 1678 "http://fontane-nb.dariah.eu/TEI-conf/" "Mozilla/5.0 (X11; Ubuntu; Linux x86_64; rv:24.0) Gecko/20100101 Firefox/24.0"
134.76.22.130 - - [30/Sep/2013:22:37:43 +0200] "GET /TEI-conf/heb/ HTTP/1.1" 200 2539 "http://fontane-nb.dariah.eu/TEI-conf/" "Mozilla/5.0 (X11; Ubuntu; Linux x86_64; rv:24.0) Gecko/20100101 Firefox/24.0"
134.76.22.130 - - [30/Sep/2013:22:37:44 +0200] "GET /TEI-conf/heb/style.css HTTP/1.1" 404 991 "http://fontane-nb.dariah.eu/TEI-conf/heb/" "Mozilla/5.0 (X11; Ubuntu; Linux x86_64; rv:24.0) Gecko/20100101 Firefox/24.0"
134.76.22.130 - - [30/Sep/2013:22:37:44 +0200] "GET /TEI-conf/heb/packages.js HTTP/1.1" 200 1191 "http://fontane-nb.dariah.eu/TEI-conf/heb/" "Mozilla/5.0 (X11; Ubuntu; Linux x86_64; rv:24.0) Gecko/20100101 Firefox/24.0"
134.76.22.130 - - [30/Sep/2013:22:37:44 +0200] "GET /TEI-conf/heb/script.js HTTP/1.1" 200 8637 "http://fontane-nb.dariah.eu/TEI-conf/heb/" "Mozilla/5.0 (X11; Ubuntu; Linux x86_64; rv:24.0) Gecko/20100101 Firefox/24.0"
134.76.22.130 - - [30/Sep/2013:22:37:44 +0200] "GET /TEI-conf/heb/d3.layout.js HTTP/1.1" 200 48435 "http://fontane-nb.dariah.eu/TEI-conf/heb/" "Mozilla/5.0 (X11; Ubuntu; Linux x86_64; rv:24.0) Gecko/20100101 Firefox/24.0"
134.76.22.130 - - [30/Sep/2013:22:37:44 +0200] "GET /TEI-conf/heb/d3.js HTTP/1.1" 200 126501 "http://fontane-nb.dariah.eu/TEI-conf/heb/" "Mozilla/5.0 (X11; Ubuntu; Linux x86_64; rv:24.0) Gecko/20100101 Firefox/24.0"
134.76.22.130 - - [30/Sep/2013:22:37:44 +0200] "GET /TEI-conf/heb/c07-network-experiment.json HTTP/1.1" 200 19372 "http://fontane-nb.dariah.eu/TEI-conf/heb/" "Mozilla/5.0 (X11; Ubuntu; Linux x86_64; rv:24.0) Gecko/20100101 Firefox/24.0"
88.71.190.90 - - [01/Oct/2013:07:41:29 +0200] "GET /TEI-conf/heb/ HTTP/1.1" 200 2539 "http://fontane_nb.dariah.eu/TEI-conf/" "Mozilla/5.0 (Android; Tablet; rv:23.0) Gecko/23.0 Firefox/23.0"
88.71.190.90 - - [01/Oct/2013:07:41:30 +0200] "GET /TEI-conf/heb/style.css HTTP/1.1" 404 991 "http://fontane_nb.dariah.eu/TEI-conf/heb/" "Mozilla/5.0 (Android; Tablet; rv:23.0) Gecko/23.0 Firefox/23.0"
88.71.190.90 - - [01/Oct/2013:07:41:30 +0200] "GET /TEI-conf/heb/packages.js HTTP/1.1" 200 1191 "http://fontane_nb.dariah.eu/TEI-conf/heb/" "Mozilla/5.0 (Android; Tablet; rv:23.0) Gecko/23.0 Firefox/23.0"
88.71.190.90 - - [01/Oct/2013:07:41:30 +0200] "GET /TEI-conf/heb/script.js HTTP/1.1" 200 8637 "http://fontane_nb.dariah.eu/TEI-conf/heb/" "Mozilla/5.0 (Android; Tablet; rv:23.0) Gecko/23.0 Firefox/23.0"
88.71.190.90 - - [01/Oct/2013:07:41:30 +0200] "GET /TEI-conf/heb/d3.js HTTP/1.1" 200 126501 "http://fontane_nb.dariah.eu/TEI-conf/heb/" "Mozilla/5.0 (Android; Tablet; rv:23.0) Gecko/23.0 Firefox/23.0"
88.71.190.90 - - [01/Oct/2013:07:41:30 +0200] "GET /TEI-conf/heb/d3.layout.js HTTP/1.1" 200 48435 "http://fontane_nb.dariah.eu/TEI-conf/heb/" "Mozilla/5.0 (Android; Tablet; rv:23.0) Gecko/23.0 Firefox/23.0"
88.71.190.90 - - [01/Oct/2013:07:41:31 +0200] "GET /TEI-conf/heb/c07-network-experiment.json HTTP/1.1" 200 19372 "http://fontane_nb.dariah.eu/TEI-conf/heb/" "Mozilla/5.0 (Android; Tablet; rv:23.0) Gecko/23.0 Firefox/23.0"
134.76.162.165 - - [01/Oct/2013:11:02:22 +0200] "GET /TEI-conf/heb/ HTTP/1.1" 200 2539 "http://fontane-nb.dariah.eu/TEI-conf/" "Mozilla/5.0 (X11; Ubuntu; Linux x86_64; rv:23.0) Gecko/20100101 Firefox/23.0"
134.76.162.165 - - [01/Oct/2013:11:02:22 +0200] "GET /TEI-conf/heb/style.css HTTP/1.1" 404 991 "http://fontane-nb.dariah.eu/TEI-conf/heb/" "Mozilla/5.0 (X11; Ubuntu; Linux x86_64; rv:23.0) Gecko/20100101 Firefox/23.0"
134.76.162.165 - - [01/Oct/2013:11:02:22 +0200] "GET /TEI-conf/heb/packages.js HTTP/1.1" 200 1191 "http://fontane-nb.dariah.eu/TEI-conf/heb/" "Mozilla/5.0 (X11; Ubuntu; Linux x86_64; rv:23.0) Gecko/20100101 Firefox/23.0"
134.76.162.165 - - [01/Oct/2013:11:02:22 +0200] "GET /TEI-conf/heb/script.js HTTP/1.1" 200 8637 "http://fontane-nb.dariah.eu/TEI-conf/heb/" "Mozilla/5.0 (X11; Ubuntu; Linux x86_64; rv:23.0) Gecko/20100101 Firefox/23.0"
134.76.162.165 - - [01/Oct/2013:11:02:22 +0200] "GET /TEI-conf/heb/d3.layout.js HTTP/1.1" 200 48435 "http://fontane-nb.dariah.eu/TEI-conf/heb/" "Mozilla/5.0 (X11; Ubuntu; Linux x86_64; rv:23.0) Gecko/20100101 Firefox/23.0"
134.76.162.165 - - [01/Oct/2013:11:02:22 +0200] "GET /TEI-conf/heb/d3.js HTTP/1.1" 200 126501 "http://fontane-nb.dariah.eu/TEI-conf/heb/" "Mozilla/5.0 (X11; Ubuntu; Linux x86_64; rv:23.0) Gecko/20100101 Firefox/23.0"
134.76.162.165 - - [01/Oct/2013:11:02:22 +0200] "GET /TEI-conf/heb/c07-network-experiment.json HTTP/1.1" 200 19372 "http://fontane-nb.dariah.eu/TEI-conf/heb/" "Mozilla/5.0 (X11; Ubuntu; Linux x86_64; rv:23.0) Gecko/20100101 Firefox/23.0"
93.40.119.190 - - [01/Oct/2013:22:56:05 +0200] "GET /TEI-conf/heb/ HTTP/1.1" 200 2539 "http://fontane_nb.dariah.eu/TEI-conf/" "Mozilla/5.0 (Android; Tablet; rv:23.0) Gecko/23.0 Firefox/23.0"
93.40.119.190 - - [01/Oct/2013:22:56:05 +0200] "GET /TEI-conf/heb/style.css HTTP/1.1" 404 991 "http://fontane_nb.dariah.eu/TEI-conf/heb/" "Mozilla/5.0 (Android; Tablet; rv:23.0) Gecko/23.0 Firefox/23.0"
93.40.119.190 - - [01/Oct/2013:22:56:06 +0200] "GET /TEI-conf/heb/packages.js HTTP/1.1" 200 1191 "http://fontane_nb.dariah.eu/TEI-conf/heb/" "Mozilla/5.0 (Android; Tablet; rv:23.0) Gecko/23.0 Firefox/23.0"
93.40.119.190 - - [01/Oct/2013:22:56:06 +0200] "GET /TEI-conf/heb/script.js HTTP/1.1" 200 8637 "http://fontane_nb.dariah.eu/TEI-conf/heb/" "Mozilla/5.0 (Android; Tablet; rv:23.0) Gecko/23.0 Firefox/23.0"
93.40.119.190 - - [01/Oct/2013:22:56:06 +0200] "GET /TEI-conf/heb/d3.layout.js HTTP/1.1" 200 48435 "http://fontane_nb.dariah.eu/TEI-conf/heb/" "Mozilla/5.0 (Android; Tablet; rv:23.0) Gecko/23.0 Firefox/23.0"
93.40.119.190 - - [01/Oct/2013:22:56:05 +0200] "GET /TEI-conf/heb/d3.js HTTP/1.1" 200 126501 "http://fontane_nb.dariah.eu/TEI-conf/heb/" "Mozilla/5.0 (Android; Tablet; rv:23.0) Gecko/23.0 Firefox/23.0"
93.40.119.190 - - [01/Oct/2013:22:56:07 +0200] "GET /TEI-conf/heb/c07-network-experiment.json HTTP/1.1" 200 19372 "http://fontane_nb.dariah.eu/TEI-conf/heb/" "Mozilla/5.0 (Android; Tablet; rv:23.0) Gecko/23.0 Firefox/23.0"
134.76.2.78 - - [02/Oct/2013:12:37:05 +0200] "GET /TEI-conf/heb/TEI2xml-network.xsl HTTP/1.1" 200 9579 "http://fontane-nb.dariah.eu/TEI-conf/" "Mozilla/5.0 (X11; Linux i686) AppleWebKit/537.36 (KHTML, like Gecko) Ubuntu Chromium/28.0.1500.71 Chrome/28.0.1500.71 Safari/537.36"
93.40.119.190 - - [03/Oct/2013:22:33:08 +0200] "GET /TEI-conf/heb/TEI2xml-network.xsl HTTP/1.1" 304 - "http://fontane-nb.dariah.eu/TEI-conf/" "Mozilla/5.0 (X11; Linux i686) AppleWebKit/537.36 (KHTML, like Gecko) Ubuntu Chromium/28.0.1500.71 Chrome/28.0.1500.71 Safari/537.36"
151.100.102.125 - - [04/Oct/2013:10:11:57 +0200] "GET /tei-conf/heb/TEI2xml-network.xsl HTTP/1.1" 200 9579 "http://fontane_nb.dariah.eu/tei-conf/" "Mozilla/5.0 (Linux; Android 4.2.1; Nexus 10 Build/JOP40D) AppleWebKit/537.36 (KHTML, like Gecko) Chrome/30.0.1599.82 Safari/537.36"
151.100.102.125 - - [04/Oct/2013:10:25:06 +0200] "GET /tei-conf/heb/ HTTP/1.1" 200 2539 "http://fontane_nb.dariah.eu/tei-conf/" "Mozilla/5.0 (Linux; Android 4.2.1; Nexus 10 Build/JOP40D) AppleWebKit/537.36 (KHTML, like Gecko) Chrome/30.0.1599.82 Safari/537.36"
151.100.102.125 - - [04/Oct/2013:10:25:06 +0200] "GET /tei-conf/heb/style.css HTTP/1.1" 404 991 "http://fontane_nb.dariah.eu/tei-conf/heb/" "Mozilla/5.0 (Linux; Android 4.2.1; Nexus 10 Build/JOP40D) AppleWebKit/537.36 (KHTML, like Gecko) Chrome/30.0.1599.82 Safari/537.36"
151.100.102.125 - - [04/Oct/2013:10:25:06 +0200] "GET /tei-conf/heb/packages.js HTTP/1.1" 200 1191 "http://fontane_nb.dariah.eu/tei-conf/heb/" "Mozilla/5.0 (Linux; Android 4.2.1; Nexus 10 Build/JOP40D) AppleWebKit/537.36 (KHTML, like Gecko) Chrome/30.0.1599.82 Safari/537.36"
151.100.102.125 - - [04/Oct/2013:10:25:06 +0200] "GET /tei-conf/heb/script.js HTTP/1.1" 200 8637 "http://fontane_nb.dariah.eu/tei-conf/heb/" "Mozilla/5.0 (Linux; Android 4.2.1; Nexus 10 Build/JOP40D) AppleWebKit/537.36 (KHTML, like Gecko) Chrome/30.0.1599.82 Safari/537.36"
151.100.102.125 - - [04/Oct/2013:10:25:06 +0200] "GET /tei-conf/heb/d3.layout.js HTTP/1.1" 200 48435 "http://fontane_nb.dariah.eu/tei-conf/heb/" "Mozilla/5.0 (Linux; Android 4.2.1; Nexus 10 Build/JOP40D) AppleWebKit/537.36 (KHTML, like Gecko) Chrome/30.0.1599.82 Safari/537.36"
151.100.102.125 - - [04/Oct/2013:10:25:06 +0200] "GET /tei-conf/heb/d3.js HTTP/1.1" 200 126501 "http://fontane_nb.dariah.eu/tei-conf/heb/" "Mozilla/5.0 (Linux; Android 4.2.1; Nexus 10 Build/JOP40D) AppleWebKit/537.36 (KHTML, like Gecko) Chrome/30.0.1599.82 Safari/537.36"
151.100.102.125 - - [04/Oct/2013:10:25:07 +0200] "GET /tei-conf/heb/c07-network-experiment.json HTTP/1.1" 200 19372 "http://fontane_nb.dariah.eu/tei-conf/heb/" "Mozilla/5.0 (Linux; Android 4.2.1; Nexus 10 Build/JOP40D) AppleWebKit/537.36 (KHTML, like Gecko) Chrome/30.0.1599.82 Safari/537.36"
151.100.102.125 - - [04/Oct/2013:11:40:45 +0200] "GET /tei-conf/heb/TEI2xml-network.xsl HTTP/1.1" 304 - "http://fontane_nb.dariah.eu/tei-conf/" "Mozilla/5.0 (Linux; Android 4.2.1; Nexus 10 Build/JOP40D) AppleWebKit/537.36 (KHTML, like Gecko) Chrome/30.0.1599.82 Safari/537.36"
151.100.102.125 - - [04/Oct/2013:11:42:06 +0200] "GET /tei-conf/heb/c07-network.xml HTTP/1.1" 200 123094 "-" "Mozilla/5.0 (Linux; Android 4.2.1; Nexus 10 Build/JOP40D) AppleWebKit/537.36 (KHTML, like Gecko) Chrome/30.0.1599.82 Safari/537.36"
151.100.102.125 - - [04/Oct/2013:11:41:30 +0200] "GET /tei-conf/heb/c07-network.xml HTTP/1.1" 200 81920 "-" "Mozilla/5.0 (Linux; Android 4.2.1; Nexus 10 Build/JOP40D) AppleWebKit/537.36 (KHTML, like Gecko) Chrome/30.0.1599.82 Safari/537.36"
151.100.102.125 - - [04/Oct/2013:11:42:40 +0200] "GET /tei-conf/heb/c07-network.xml HTTP/1.1" 304 - "-" "Mozilla/5.0 (Linux; Android 4.2.1; Nexus 10 Build/JOP40D) AppleWebKit/537.36 (KHTML, like Gecko) Chrome/30.0.1599.82 Safari/537.36"
151.100.102.125 - - [04/Oct/2013:11:43:06 +0200] "GET /tei-conf/heb/c07-network.xml HTTP/1.1" 200 81920 "-" "Mozilla/5.0 (Linux; Android 4.2.1; Nexus 10 Build/JOP40D) AppleWebKit/537.36 (KHTML, like Gecko) Chrome/30.0.1599.82 Safari/537.36"
151.100.102.125 - - [04/Oct/2013:11:43:07 +0200] "GET /tei-conf/heb/c07-network.xml HTTP/1.1" 200 123094 "-" "Mozilla/5.0 (Linux; Android 4.2.1; Nexus 10 Build/JOP40D) AppleWebKit/537.36 (KHTML, like Gecko) Chrome/30.0.1599.82 Safari/537.36"
151.100.102.125 - - [04/Oct/2013:11:43:48 +0200] "GET /tei-conf/heb/c07-network.xml HTTP/1.1" 200 81920 "-" "Mozilla/5.0 (Android; Tablet; rv:23.0) Gecko/23.0 Firefox/23.0"
134.76.2.105 - - [04/Oct/2013:12:02:55 +0200] "GET /TEI-conf/heb/TEI2xml-network.xsl HTTP/1.1" 200 9579 "http://fontane-nb.dariah.eu/TEI-conf/" "Mozilla/5.0 (Android; Tablet; rv:23.0) Gecko/23.0 Firefox/23.0"
91.60.188.137 - - [04/Oct/2013:14:01:08 +0200] "GET /tei-conf/heb/ HTTP/1.1" 200 2539 "http://fontane-nb.dariah.eu/tei-conf/" "Mozilla/5.0 (Windows NT 6.1; WOW64; rv:24.0) Gecko/20100101 Firefox/24.0"
91.60.188.137 - - [04/Oct/2013:14:01:08 +0200] "GET /tei-conf/heb/style.css HTTP/1.1" 404 991 "http://fontane-nb.dariah.eu/tei-conf/heb/" "Mozilla/5.0 (Windows NT 6.1; WOW64; rv:24.0) Gecko/20100101 Firefox/24.0"
91.60.188.137 - - [04/Oct/2013:14:01:08 +0200] "GET /tei-conf/heb/packages.js HTTP/1.1" 200 1191 "http://fontane-nb.dariah.eu/tei-conf/heb/" "Mozilla/5.0 (Windows NT 6.1; WOW64; rv:24.0) Gecko/20100101 Firefox/24.0"
91.60.188.137 - - [04/Oct/2013:14:01:08 +0200] "GET /tei-conf/heb/script.js HTTP/1.1" 200 8637 "http://fontane-nb.dariah.eu/tei-conf/heb/" "Mozilla/5.0 (Windows NT 6.1; WOW64; rv:24.0) Gecko/20100101 Firefox/24.0"
91.60.188.137 - - [04/Oct/2013:14:01:08 +0200] "GET /tei-conf/heb/d3.layout.js HTTP/1.1" 200 48435 "http://fontane-nb.dariah.eu/tei-conf/heb/" "Mozilla/5.0 (Windows NT 6.1; WOW64; rv:24.0) Gecko/20100101 Firefox/24.0"
91.60.188.137 - - [04/Oct/2013:14:01:08 +0200] "GET /tei-conf/heb/d3.js HTTP/1.1" 200 126501 "http://fontane-nb.dariah.eu/tei-conf/heb/" "Mozilla/5.0 (Windows NT 6.1; WOW64; rv:24.0) Gecko/20100101 Firefox/24.0"
91.60.188.137 - - [04/Oct/2013:14:01:09 +0200] "GET /tei-conf/heb/c07-network-experiment.json HTTP/1.1" 200 19372 "http://fontane-nb.dariah.eu/tei-conf/heb/" "Mozilla/5.0 (Windows NT 6.1; WOW64; rv:24.0) Gecko/20100101 Firefox/24.0"
151.100.102.125 - - [04/Oct/2013:14:19:29 +0200] "GET /tei-conf/heb/ HTTP/1.1" 200 2539 "http://fontane-nb.dariah.eu/tei-conf/" "Mozilla/5.0 (Android; Tablet; rv:24.0) Gecko/24.0 Firefox/24.0"
151.100.102.125 - - [04/Oct/2013:14:19:29 +0200] "GET /tei-conf/heb/style.css HTTP/1.1" 404 991 "http://fontane-nb.dariah.eu/tei-conf/heb/" "Mozilla/5.0 (Android; Tablet; rv:24.0) Gecko/24.0 Firefox/24.0"
151.100.102.125 - - [04/Oct/2013:14:19:29 +0200] "GET /tei-conf/heb/script.js HTTP/1.1" 200 8637 "http://fontane-nb.dariah.eu/tei-conf/heb/" "Mozilla/5.0 (Android; Tablet; rv:24.0) Gecko/24.0 Firefox/24.0"
151.100.102.125 - - [04/Oct/2013:14:19:29 +0200] "GET /tei-conf/heb/packages.js HTTP/1.1" 200 1191 "http://fontane-nb.dariah.eu/tei-conf/heb/" "Mozilla/5.0 (Android; Tablet; rv:24.0) Gecko/24.0 Firefox/24.0"
151.100.102.125 - - [04/Oct/2013:14:19:29 +0200] "GET /tei-conf/heb/d3.layout.js HTTP/1.1" 200 48435 "http://fontane-nb.dariah.eu/tei-conf/heb/" "Mozilla/5.0 (Android; Tablet; rv:24.0) Gecko/24.0 Firefox/24.0"
151.100.102.125 - - [04/Oct/2013:14:19:29 +0200] "GET /tei-conf/heb/d3.js HTTP/1.1" 200 126501 "http://fontane-nb.dariah.eu/tei-conf/heb/" "Mozilla/5.0 (Android; Tablet; rv:24.0) Gecko/24.0 Firefox/24.0"
151.100.102.125 - - [04/Oct/2013:14:19:30 +0200] "GET /tei-conf/heb/c07-network-experiment.json HTTP/1.1" 200 19372 "http://fontane-nb.dariah.eu/tei-conf/heb/" "Mozilla/5.0 (Android; Tablet; rv:24.0) Gecko/24.0 Firefox/24.0"
93.233.74.130 - - [04/Oct/2013:14:43:57 +0200] "GET /tei-conf/heb/ HTTP/1.1" 200 2539 "http://fontane-nb.dariah.eu/tei-conf/" "Mozilla/5.0 (Windows NT 6.1; WOW64; rv:24.0) Gecko/20100101 Firefox/24.0 AlexaToolbar/amznf-3.0.20121130"
93.233.74.130 - - [04/Oct/2013:14:43:57 +0200] "GET /tei-conf/heb/style.css HTTP/1.1" 404 991 "http://fontane-nb.dariah.eu/tei-conf/heb/" "Mozilla/5.0 (Windows NT 6.1; WOW64; rv:24.0) Gecko/20100101 Firefox/24.0 AlexaToolbar/amznf-3.0.20121130"
93.233.74.130 - - [04/Oct/2013:14:43:57 +0200] "GET /tei-conf/heb/d3.js HTTP/1.1" 200 126501 "http://fontane-nb.dariah.eu/tei-conf/heb/" "Mozilla/5.0 (Windows NT 6.1; WOW64; rv:24.0) Gecko/20100101 Firefox/24.0 AlexaToolbar/amznf-3.0.20121130"
93.233.74.130 - - [04/Oct/2013:14:43:58 +0200] "GET /tei-conf/heb/packages.js HTTP/1.1" 200 1191 "http://fontane-nb.dariah.eu/tei-conf/heb/" "Mozilla/5.0 (Windows NT 6.1; WOW64; rv:24.0) Gecko/20100101 Firefox/24.0 AlexaToolbar/amznf-3.0.20121130"
93.233.74.130 - - [04/Oct/2013:14:43:58 +0200] "GET /tei-conf/heb/script.js HTTP/1.1" 200 8637 "http://fontane-nb.dariah.eu/tei-conf/heb/" "Mozilla/5.0 (Windows NT 6.1; WOW64; rv:24.0) Gecko/20100101 Firefox/24.0 AlexaToolbar/amznf-3.0.20121130"
93.233.74.130 - - [04/Oct/2013:14:43:58 +0200] "GET /tei-conf/heb/d3.layout.js HTTP/1.1" 200 48435 "http://fontane-nb.dariah.eu/tei-conf/heb/" "Mozilla/5.0 (Windows NT 6.1; WOW64; rv:24.0) Gecko/20100101 Firefox/24.0 AlexaToolbar/amznf-3.0.20121130"
93.233.74.130 - - [04/Oct/2013:14:43:58 +0200] "GET /tei-conf/heb/c07-network-experiment.json HTTP/1.1" 200 19372 "http://fontane-nb.dariah.eu/tei-conf/heb/" "Mozilla/5.0 (Windows NT 6.1; WOW64; rv:24.0) Gecko/20100101 Firefox/24.0 AlexaToolbar/amznf-3.0.20121130"
193.239.220.248 - - [04/Oct/2013:14:45:20 +0200] "GET /tei-conf/heb/ HTTP/1.1" 200 2539 "http://fontane-nb.dariah.eu/tei-conf/" "Mozilla/5.0 (iPad; CPU OS 7_0_2 like Mac OS X) AppleWebKit/537.51.1 (KHTML, like Gecko) Mobile/11A501"
193.239.220.248 - - [04/Oct/2013:14:45:20 +0200] "GET /tei-conf/heb/style.css HTTP/1.1" 404 991 "http://fontane-nb.dariah.eu/tei-conf/heb/" "Mozilla/5.0 (iPad; CPU OS 7_0_2 like Mac OS X) AppleWebKit/537.51.1 (KHTML, like Gecko) Mobile/11A501"
193.239.220.248 - - [04/Oct/2013:14:45:20 +0200] "GET /tei-conf/heb/packages.js HTTP/1.1" 200 1191 "http://fontane-nb.dariah.eu/tei-conf/heb/" "Mozilla/5.0 (iPad; CPU OS 7_0_2 like Mac OS X) AppleWebKit/537.51.1 (KHTML, like Gecko) Mobile/11A501"
193.239.220.248 - - [04/Oct/2013:14:45:20 +0200] "GET /tei-conf/heb/script.js HTTP/1.1" 200 8637 "http://fontane-nb.dariah.eu/tei-conf/heb/" "Mozilla/5.0 (iPad; CPU OS 7_0_2 like Mac OS X) AppleWebKit/537.51.1 (KHTML, like Gecko) Mobile/11A501"
193.239.220.248 - - [04/Oct/2013:14:45:20 +0200] "GET /tei-conf/heb/d3.layout.js HTTP/1.1" 200 48435 "http://fontane-nb.dariah.eu/tei-conf/heb/" "Mozilla/5.0 (iPad; CPU OS 7_0_2 like Mac OS X) AppleWebKit/537.51.1 (KHTML, like Gecko) Mobile/11A501"
193.239.220.248 - - [04/Oct/2013:14:45:20 +0200] "GET /tei-conf/heb/d3.js HTTP/1.1" 200 126501 "http://fontane-nb.dariah.eu/tei-conf/heb/" "Mozilla/5.0 (iPad; CPU OS 7_0_2 like Mac OS X) AppleWebKit/537.51.1 (KHTML, like Gecko) Mobile/11A501"
193.239.220.248 - - [04/Oct/2013:14:45:21 +0200] "GET /tei-conf/heb/c07-network-experiment.json HTTP/1.1" 200 19372 "http://fontane-nb.dariah.eu/tei-conf/heb/" "Mozilla/5.0 (iPad; CPU OS 7_0_2 like Mac OS X) AppleWebKit/537.51.1 (KHTML, like Gecko) Mobile/11A501"
151.100.102.125 - - [04/Oct/2013:14:46:55 +0200] "GET /TEI-conf/heb/ HTTP/1.1" 200 2539 "http://fontane_nb.dariah.eu/TEI-conf/" "Mozilla/5.0 (Windows NT 6.1; WOW64; rv:24.0) Gecko/20100101 Firefox/24.0"
151.100.102.125 - - [04/Oct/2013:14:46:55 +0200] "GET /TEI-conf/heb/style.css HTTP/1.1" 404 991 "http://fontane_nb.dariah.eu/TEI-conf/heb/" "Mozilla/5.0 (Windows NT 6.1; WOW64; rv:24.0) Gecko/20100101 Firefox/24.0"
151.100.102.125 - - [04/Oct/2013:14:46:55 +0200] "GET /TEI-conf/heb/packages.js HTTP/1.1" 200 1191 "http://fontane_nb.dariah.eu/TEI-conf/heb/" "Mozilla/5.0 (Windows NT 6.1; WOW64; rv:24.0) Gecko/20100101 Firefox/24.0"
151.100.102.125 - - [04/Oct/2013:14:46:55 +0200] "GET /TEI-conf/heb/script.js HTTP/1.1" 200 8637 "http://fontane_nb.dariah.eu/TEI-conf/heb/" "Mozilla/5.0 (Windows NT 6.1; WOW64; rv:24.0) Gecko/20100101 Firefox/24.0"
151.100.102.125 - - [04/Oct/2013:14:46:55 +0200] "GET /TEI-conf/heb/d3.layout.js HTTP/1.1" 200 48435 "http://fontane_nb.dariah.eu/TEI-conf/heb/" "Mozilla/5.0 (Windows NT 6.1; WOW64; rv:24.0) Gecko/20100101 Firefox/24.0"
151.100.102.125 - - [04/Oct/2013:14:46:55 +0200] "GET /TEI-conf/heb/d3.js HTTP/1.1" 200 126501 "http://fontane_nb.dariah.eu/TEI-conf/heb/" "Mozilla/5.0 (Windows NT 6.1; WOW64; rv:24.0) Gecko/20100101 Firefox/24.0"
151.100.102.125 - - [04/Oct/2013:14:46:55 +0200] "GET /TEI-conf/heb/c07-network-experiment.json HTTP/1.1" 200 19372 "http://fontane_nb.dariah.eu/TEI-conf/heb/" "Mozilla/5.0 (Windows NT 6.1; WOW64; rv:24.0) Gecko/20100101 Firefox/24.0"
86.184.145.85 - - [04/Oct/2013:16:18:01 +0200] "GET /tei-conf/heb/ HTTP/1.1" 200 2539 "http://fontane-nb.dariah.eu/tei-conf/" "Mozilla/5.0 (X11; Ubuntu; Linux i686; rv:24.0) Gecko/20100101 Firefox/24.0"
86.184.145.85 - - [04/Oct/2013:16:18:01 +0200] "GET /tei-conf/heb/style.css HTTP/1.1" 404 991 "http://fontane-nb.dariah.eu/tei-conf/heb/" "Mozilla/5.0 (X11; Ubuntu; Linux i686; rv:24.0) Gecko/20100101 Firefox/24.0"
86.184.145.85 - - [04/Oct/2013:16:18:02 +0200] "GET /tei-conf/heb/d3.layout.js HTTP/1.1" 200 48435 "http://fontane-nb.dariah.eu/tei-conf/heb/" "Mozilla/5.0 (X11; Ubuntu; Linux i686; rv:24.0) Gecko/20100101 Firefox/24.0"
86.184.145.85 - - [04/Oct/2013:16:18:02 +0200] "GET /tei-conf/heb/packages.js HTTP/1.1" 200 1191 "http://fontane-nb.dariah.eu/tei-conf/heb/" "Mozilla/5.0 (X11; Ubuntu; Linux i686; rv:24.0) Gecko/20100101 Firefox/24.0"
86.184.145.85 - - [04/Oct/2013:16:18:02 +0200] "GET /tei-conf/heb/script.js HTTP/1.1" 200 8637 "http://fontane-nb.dariah.eu/tei-conf/heb/" "Mozilla/5.0 (X11; Ubuntu; Linux i686; rv:24.0) Gecko/20100101 Firefox/24.0"
86.184.145.85 - - [04/Oct/2013:16:18:02 +0200] "GET /tei-conf/heb/d3.js HTTP/1.1" 200 126501 "http://fontane-nb.dariah.eu/tei-conf/heb/" "Mozilla/5.0 (X11; Ubuntu; Linux i686; rv:24.0) Gecko/20100101 Firefox/24.0"
86.184.145.85 - - [04/Oct/2013:16:18:02 +0200] "GET /tei-conf/heb/c07-network-experiment.json HTTP/1.1" 200 19372 "http://fontane-nb.dariah.eu/tei-conf/heb/" "Mozilla/5.0 (X11; Ubuntu; Linux i686; rv:24.0) Gecko/20100101 Firefox/24.0"
93.131.38.166 - - [05/Oct/2013:07:42:12 +0200] "GET /tei-conf/heb/ HTTP/1.1" 200 2539 "http://fontane-nb.dariah.eu/tei-conf/" "Mozilla/5.0 (iPad; CPU OS 7_0_2 like Mac OS X) AppleWebKit/537.51.1 (KHTML, like Gecko) Version/7.0 Mobile/11A501 Safari/9537.53"
93.131.38.166 - - [05/Oct/2013:07:42:12 +0200] "GET /tei-conf/heb/style.css HTTP/1.1" 404 991 "http://fontane-nb.dariah.eu/tei-conf/heb/" "Mozilla/5.0 (iPad; CPU OS 7_0_2 like Mac OS X) AppleWebKit/537.51.1 (KHTML, like Gecko) Version/7.0 Mobile/11A501 Safari/9537.53"
93.131.38.166 - - [05/Oct/2013:07:42:12 +0200] "GET /tei-conf/heb/script.js HTTP/1.1" 200 8637 "http://fontane-nb.dariah.eu/tei-conf/heb/" "Mozilla/5.0 (iPad; CPU OS 7_0_2 like Mac OS X) AppleWebKit/537.51.1 (KHTML, like Gecko) Version/7.0 Mobile/11A501 Safari/9537.53"
93.131.38.166 - - [05/Oct/2013:07:42:12 +0200] "GET /tei-conf/heb/packages.js HTTP/1.1" 200 1191 "http://fontane-nb.dariah.eu/tei-conf/heb/" "Mozilla/5.0 (iPad; CPU OS 7_0_2 like Mac OS X) AppleWebKit/537.51.1 (KHTML, like Gecko) Version/7.0 Mobile/11A501 Safari/9537.53"
93.131.38.166 - - [05/Oct/2013:07:42:12 +0200] "GET /tei-conf/heb/d3.layout.js HTTP/1.1" 200 48435 "http://fontane-nb.dariah.eu/tei-conf/heb/" "Mozilla/5.0 (iPad; CPU OS 7_0_2 like Mac OS X) AppleWebKit/537.51.1 (KHTML, like Gecko) Version/7.0 Mobile/11A501 Safari/9537.53"
93.131.38.166 - - [05/Oct/2013:07:42:12 +0200] "GET /tei-conf/heb/d3.js HTTP/1.1" 200 126501 "http://fontane-nb.dariah.eu/tei-conf/heb/" "Mozilla/5.0 (iPad; CPU OS 7_0_2 like Mac OS X) AppleWebKit/537.51.1 (KHTML, like Gecko) Version/7.0 Mobile/11A501 Safari/9537.53"
93.131.38.166 - - [05/Oct/2013:07:42:13 +0200] "GET /tei-conf/heb/c07-network-experiment.json HTTP/1.1" 200 19372 "http://fontane-nb.dariah.eu/tei-conf/heb/" "Mozilla/5.0 (iPad; CPU OS 7_0_2 like Mac OS X) AppleWebKit/537.51.1 (KHTML, like Gecko) Version/7.0 Mobile/11A501 Safari/9537.53"
66.249.75.15 - - [05/Oct/2013:13:30:19 +0200] "GET /tei-conf/heb/ HTTP/1.1" 200 2539 "-" "Mozilla/5.0 (compatible; Googlebot/2.1; +http://www.google.com/bot.html)"
66.249.75.15 - - [05/Oct/2013:13:40:11 +0200] "GET /tei-conf/heb/d3.js HTTP/1.1" 200 126501 "http://fontane-nb.dariah.eu/tei-conf/heb/" "Mozilla/5.0 (compatible; Googlebot/2.1; +http://www.google.com/bot.html)"
66.249.75.15 - - [05/Oct/2013:13:40:12 +0200] "GET /tei-conf/heb/script.js HTTP/1.1" 200 8637 "http://fontane-nb.dariah.eu/tei-conf/heb/" "Mozilla/5.0 (compatible; Googlebot/2.1; +http://www.google.com/bot.html)"
66.249.75.15 - - [05/Oct/2013:13:40:13 +0200] "GET /tei-conf/heb/d3.layout.js HTTP/1.1" 200 48435 "http://fontane-nb.dariah.eu/tei-conf/heb/" "Mozilla/5.0 (compatible; Googlebot/2.1; +http://www.google.com/bot.html)"
66.249.75.15 - - [05/Oct/2013:13:40:15 +0200] "GET /tei-conf/heb/c07-network-experiment.json HTTP/1.1" 200 19372 "http://fontane-nb.dariah.eu/tei-conf/heb/" "Mozilla/5.0 (compatible; Googlebot/2.1; +http://www.google.com/bot.html)"
66.249.75.15 - - [05/Oct/2013:13:43:39 +0200] "GET /tei-conf/heb/TEI2xml-network.xsl HTTP/1.1" 200 9579 "-" "Mozilla/5.0 (compatible; Googlebot/2.1; +http://www.google.com/bot.html)"
66.249.75.15 - - [05/Oct/2013:16:04:32 +0200] "GET /tei-conf/heb/style.css HTTP/1.1" 404 991 "-" "Mozilla/5.0 (compatible; Googlebot/2.1; +http://www.google.com/bot.html)"
66.249.75.15 - - [05/Oct/2013:16:07:38 +0200] "GET /tei-conf/heb/packages.js HTTP/1.1" 200 1191 "-" "Mozilla/5.0 (compatible; Googlebot/2.1; +http://www.google.com/bot.html)"
92.225.140.204 - - [05/Oct/2013:20:10:11 +0200] "GET /tei-conf/heb/ HTTP/1.1" 200 2539 "http://fontane-nb.dariah.eu/tei-conf/" "Mozilla/5.0 (Windows NT 6.2; WOW64; rv:24.0) Gecko/20100101 Firefox/24.0"
92.225.140.204 - - [05/Oct/2013:20:10:11 +0200] "GET /tei-conf/heb/style.css HTTP/1.1" 404 991 "http://fontane-nb.dariah.eu/tei-conf/heb/" "Mozilla/5.0 (Windows NT 6.2; WOW64; rv:24.0) Gecko/20100101 Firefox/24.0"
92.225.140.204 - - [05/Oct/2013:20:10:11 +0200] "GET /tei-conf/heb/d3.js HTTP/1.1" 200 126501 "http://fontane-nb.dariah.eu/tei-conf/heb/" "Mozilla/5.0 (Windows NT 6.2; WOW64; rv:24.0) Gecko/20100101 Firefox/24.0"
92.225.140.204 - - [05/Oct/2013:20:10:12 +0200] "GET /tei-conf/heb/packages.js HTTP/1.1" 200 1191 "http://fontane-nb.dariah.eu/tei-conf/heb/" "Mozilla/5.0 (Windows NT 6.2; WOW64; rv:24.0) Gecko/20100101 Firefox/24.0"
92.225.140.204 - - [05/Oct/2013:20:10:12 +0200] "GET /tei-conf/heb/script.js HTTP/1.1" 200 8637 "http://fontane-nb.dariah.eu/tei-conf/heb/" "Mozilla/5.0 (Windows NT 6.2; WOW64; rv:24.0) Gecko/20100101 Firefox/24.0"
92.225.140.204 - - [05/Oct/2013:20:10:12 +0200] "GET /tei-conf/heb/d3.layout.js HTTP/1.1" 200 48435 "http://fontane-nb.dariah.eu/tei-conf/heb/" "Mozilla/5.0 (Windows NT 6.2; WOW64; rv:24.0) Gecko/20100101 Firefox/24.0"
92.225.140.204 - - [05/Oct/2013:20:10:12 +0200] "GET /tei-conf/heb/c07-network-experiment.json HTTP/1.1" 200 19372 "http://fontane-nb.dariah.eu/tei-conf/heb/" "Mozilla/5.0 (Windows NT 6.2; WOW64; rv:24.0) Gecko/20100101 Firefox/24.0"
193.204.146.61 - - [05/Oct/2013:20:34:26 +0200] "GET /tei-conf/heb/ HTTP/1.1" 200 2539 "http://fontane-nb.dariah.eu/tei-conf/" "Mozilla/5.0 (Macintosh; Intel Mac OS X 10_7_5) AppleWebKit/537.36 (KHTML, like Gecko) Chrome/30.0.1599.69 Safari/537.36"
193.204.146.61 - - [05/Oct/2013:20:34:26 +0200] "GET /tei-conf/heb/style.css HTTP/1.1" 404 991 "http://fontane-nb.dariah.eu/tei-conf/heb/" "Mozilla/5.0 (Macintosh; Intel Mac OS X 10_7_5) AppleWebKit/537.36 (KHTML, like Gecko) Chrome/30.0.1599.69 Safari/537.36"
193.204.146.61 - - [05/Oct/2013:20:34:26 +0200] "GET /tei-conf/heb/d3.js HTTP/1.1" 200 126501 "http://fontane-nb.dariah.eu/tei-conf/heb/" "Mozilla/5.0 (Macintosh; Intel Mac OS X 10_7_5) AppleWebKit/537.36 (KHTML, like Gecko) Chrome/30.0.1599.69 Safari/537.36"
193.204.146.61 - - [05/Oct/2013:20:34:26 +0200] "GET /tei-conf/heb/packages.js HTTP/1.1" 200 1191 "http://fontane-nb.dariah.eu/tei-conf/heb/" "Mozilla/5.0 (Macintosh; Intel Mac OS X 10_7_5) AppleWebKit/537.36 (KHTML, like Gecko) Chrome/30.0.1599.69 Safari/537.36"
193.204.146.61 - - [05/Oct/2013:20:34:26 +0200] "GET /tei-conf/heb/script.js HTTP/1.1" 200 8637 "http://fontane-nb.dariah.eu/tei-conf/heb/" "Mozilla/5.0 (Macintosh; Intel Mac OS X 10_7_5) AppleWebKit/537.36 (KHTML, like Gecko) Chrome/30.0.1599.69 Safari/537.36"
193.204.146.61 - - [05/Oct/2013:20:34:26 +0200] "GET /tei-conf/heb/d3.layout.js HTTP/1.1" 200 48435 "http://fontane-nb.dariah.eu/tei-conf/heb/" "Mozilla/5.0 (Macintosh; Intel Mac OS X 10_7_5) AppleWebKit/537.36 (KHTML, like Gecko) Chrome/30.0.1599.69 Safari/537.36"
193.204.146.61 - - [05/Oct/2013:20:34:28 +0200] "GET /tei-conf/heb/c07-network-experiment.json HTTP/1.1" 200 19372 "http://fontane-nb.dariah.eu/tei-conf/heb/" "Mozilla/5.0 (Macintosh; Intel Mac OS X 10_7_5) AppleWebKit/537.36 (KHTML, like Gecko) Chrome/30.0.1599.69 Safari/537.36"
93.233.66.147 - - [06/Oct/2013:11:57:06 +0200] "GET /tei-conf/heb/ HTTP/1.1" 304 - "http://fontane-nb.dariah.eu/tei-conf/" "Mozilla/5.0 (Windows NT 6.1; WOW64; rv:24.0) Gecko/20100101 Firefox/24.0 AlexaToolbar/amznf-3.0.20121130"
93.233.66.147 - - [06/Oct/2013:11:57:06 +0200] "GET /tei-conf/heb/style.css HTTP/1.1" 404 991 "http://fontane-nb.dariah.eu/tei-conf/heb/" "Mozilla/5.0 (Windows NT 6.1; WOW64; rv:24.0) Gecko/20100101 Firefox/24.0 AlexaToolbar/amznf-3.0.20121130"
93.233.66.147 - - [06/Oct/2013:11:57:06 +0200] "GET /tei-conf/heb/d3.js HTTP/1.1" 304 - "http://fontane-nb.dariah.eu/tei-conf/heb/" "Mozilla/5.0 (Windows NT 6.1; WOW64; rv:24.0) Gecko/20100101 Firefox/24.0 AlexaToolbar/amznf-3.0.20121130"
93.233.66.147 - - [06/Oct/2013:11:57:06 +0200] "GET /tei-conf/heb/d3.layout.js HTTP/1.1" 304 - "http://fontane-nb.dariah.eu/tei-conf/heb/" "Mozilla/5.0 (Windows NT 6.1; WOW64; rv:24.0) Gecko/20100101 Firefox/24.0 AlexaToolbar/amznf-3.0.20121130"
93.233.66.147 - - [06/Oct/2013:11:57:06 +0200] "GET /tei-conf/heb/packages.js HTTP/1.1" 304 - "http://fontane-nb.dariah.eu/tei-conf/heb/" "Mozilla/5.0 (Windows NT 6.1; WOW64; rv:24.0) Gecko/20100101 Firefox/24.0 AlexaToolbar/amznf-3.0.20121130"
93.233.66.147 - - [06/Oct/2013:11:57:06 +0200] "GET /tei-conf/heb/script.js HTTP/1.1" 304 - "http://fontane-nb.dariah.eu/tei-conf/heb/" "Mozilla/5.0 (Windows NT 6.1; WOW64; rv:24.0) Gecko/20100101 Firefox/24.0 AlexaToolbar/amznf-3.0.20121130"
93.233.66.147 - - [06/Oct/2013:11:57:06 +0200] "GET /tei-conf/heb/c07-network-experiment.json HTTP/1.1" 304 - "http://fontane-nb.dariah.eu/tei-conf/heb/" "Mozilla/5.0 (Windows NT 6.1; WOW64; rv:24.0) Gecko/20100101 Firefox/24.0 AlexaToolbar/amznf-3.0.20121130"
77.9.5.184 - - [06/Oct/2013:12:04:36 +0200] "GET /tei-conf/heb/ HTTP/1.1" 304 - "-" "Mozilla/5.0 (iPad; CPU OS 7_0_2 like Mac OS X) AppleWebKit/537.51.1 (KHTML, like Gecko) Version/7.0 Mobile/11A501 Safari/9537.53"
77.9.5.184 - - [06/Oct/2013:12:04:36 +0200] "GET /tei-conf/heb/style.css HTTP/1.1" 404 991 "http://fontane-nb.dariah.eu/tei-conf/heb/" "Mozilla/5.0 (iPad; CPU OS 7_0_2 like Mac OS X) AppleWebKit/537.51.1 (KHTML, like Gecko) Version/7.0 Mobile/11A501 Safari/9537.53"
77.9.5.184 - - [06/Oct/2013:12:04:36 +0200] "GET /tei-conf/heb/d3.js HTTP/1.1" 304 - "http://fontane-nb.dariah.eu/tei-conf/heb/" "Mozilla/5.0 (iPad; CPU OS 7_0_2 like Mac OS X) AppleWebKit/537.51.1 (KHTML, like Gecko) Version/7.0 Mobile/11A501 Safari/9537.53"
77.9.5.184 - - [06/Oct/2013:12:04:36 +0200] "GET /tei-conf/heb/packages.js HTTP/1.1" 304 - "http://fontane-nb.dariah.eu/tei-conf/heb/" "Mozilla/5.0 (iPad; CPU OS 7_0_2 like Mac OS X) AppleWebKit/537.51.1 (KHTML, like Gecko) Version/7.0 Mobile/11A501 Safari/9537.53"
77.9.5.184 - - [06/Oct/2013:12:04:36 +0200] "GET /tei-conf/heb/d3.layout.js HTTP/1.1" 304 - "http://fontane-nb.dariah.eu/tei-conf/heb/" "Mozilla/5.0 (iPad; CPU OS 7_0_2 like Mac OS X) AppleWebKit/537.51.1 (KHTML, like Gecko) Version/7.0 Mobile/11A501 Safari/9537.53"
77.9.5.184 - - [06/Oct/2013:12:04:36 +0200] "GET /tei-conf/heb/script.js HTTP/1.1" 304 - "http://fontane-nb.dariah.eu/tei-conf/heb/" "Mozilla/5.0 (iPad; CPU OS 7_0_2 like Mac OS X) AppleWebKit/537.51.1 (KHTML, like Gecko) Version/7.0 Mobile/11A501 Safari/9537.53"
77.9.5.184 - - [06/Oct/2013:12:04:36 +0200] "GET /tei-conf/heb/c07-network-experiment.json HTTP/1.1" 304 - "http://fontane-nb.dariah.eu/tei-conf/heb/" "Mozilla/5.0 (iPad; CPU OS 7_0_2 like Mac OS X) AppleWebKit/537.51.1 (KHTML, like Gecko) Version/7.0 Mobile/11A501 Safari/9537.53"
92.154.24.92 - - [06/Oct/2013:13:27:25 +0200] "GET /tei-conf/heb/TEI2xml-network.xsl HTTP/1.1" 200 9562 "http://fontane-nb.dariah.eu/tei-conf/" "Mozilla/5.0 (Macintosh; Intel Mac OS X 10.8; rv:24.0) Gecko/20100101 Firefox/24.0"
194.95.188.5 - - [08/Oct/2013:16:41:23 +0200] "GET /tei-conf/heb/ HTTP/1.1" 200 2539 "http://fontane-nb.dariah.eu/tei-conf/" "Mozilla/5.0 (Windows NT 5.1; rv:24.0) Gecko/20100101 Firefox/24.0"
194.95.188.5 - - [08/Oct/2013:16:41:23 +0200] "GET /tei-conf/heb/style.css HTTP/1.1" 404 991 "http://fontane-nb.dariah.eu/tei-conf/heb/" "Mozilla/5.0 (Windows NT 5.1; rv:24.0) Gecko/20100101 Firefox/24.0"
194.95.188.5 - - [08/Oct/2013:16:41:23 +0200] "GET /tei-conf/heb/packages.js HTTP/1.1" 200 1191 "http://fontane-nb.dariah.eu/tei-conf/heb/" "Mozilla/5.0 (Windows NT 5.1; rv:24.0) Gecko/20100101 Firefox/24.0"
194.95.188.5 - - [08/Oct/2013:16:41:23 +0200] "GET /tei-conf/heb/script.js HTTP/1.1" 200 8637 "http://fontane-nb.dariah.eu/tei-conf/heb/" "Mozilla/5.0 (Windows NT 5.1; rv:24.0) Gecko/20100101 Firefox/24.0"
194.95.188.5 - - [08/Oct/2013:16:41:23 +0200] "GET /tei-conf/heb/d3.layout.js HTTP/1.1" 200 48435 "http://fontane-nb.dariah.eu/tei-conf/heb/" "Mozilla/5.0 (Windows NT 5.1; rv:24.0) Gecko/20100101 Firefox/24.0"
194.95.188.5 - - [08/Oct/2013:16:41:23 +0200] "GET /tei-conf/heb/d3.js HTTP/1.1" 200 126501 "http://fontane-nb.dariah.eu/tei-conf/heb/" "Mozilla/5.0 (Windows NT 5.1; rv:24.0) Gecko/20100101 Firefox/24.0"
194.95.188.5 - - [08/Oct/2013:16:41:23 +0200] "GET /tei-conf/heb/c07-network-experiment.json HTTP/1.1" 200 19372 "http://fontane-nb.dariah.eu/tei-conf/heb/" "Mozilla/5.0 (Windows NT 5.1; rv:24.0) Gecko/20100101 Firefox/24.0"
2.206.1.123 - - [08/Oct/2013:19:12:30 +0200] "GET /tei-conf/heb/ HTTP/1.1" 200 2539 "http://fontane-nb.dariah.eu/tei-conf/" "Mozilla/5.0 (Android; Mobile; rv:24.0) Gecko/24.0 Firefox/24.0"
2.206.1.123 - - [08/Oct/2013:19:12:30 +0200] "GET /tei-conf/heb/style.css HTTP/1.1" 404 991 "http://fontane-nb.dariah.eu/tei-conf/heb/" "Mozilla/5.0 (Android; Mobile; rv:24.0) Gecko/24.0 Firefox/24.0"
2.206.1.123 - - [08/Oct/2013:19:12:30 +0200] "GET /tei-conf/heb/script.js HTTP/1.1" 200 8637 "http://fontane-nb.dariah.eu/tei-conf/heb/" "Mozilla/5.0 (Android; Mobile; rv:24.0) Gecko/24.0 Firefox/24.0"
2.206.1.123 - - [08/Oct/2013:19:12:30 +0200] "GET /tei-conf/heb/packages.js HTTP/1.1" 200 1191 "http://fontane-nb.dariah.eu/tei-conf/heb/" "Mozilla/5.0 (Android; Mobile; rv:24.0) Gecko/24.0 Firefox/24.0"
2.206.1.123 - - [08/Oct/2013:19:12:30 +0200] "GET /tei-conf/heb/d3.layout.js HTTP/1.1" 200 48435 "http://fontane-nb.dariah.eu/tei-conf/heb/" "Mozilla/5.0 (Android; Mobile; rv:24.0) Gecko/24.0 Firefox/24.0"
2.206.1.123 - - [08/Oct/2013:19:12:30 +0200] "GET /tei-conf/heb/d3.js HTTP/1.1" 200 126501 "http://fontane-nb.dariah.eu/tei-conf/heb/" "Mozilla/5.0 (Android; Mobile; rv:24.0) Gecko/24.0 Firefox/24.0"
2.206.1.123 - - [08/Oct/2013:19:12:31 +0200] "GET /tei-conf/heb/style.css HTTP/1.1" 404 991 "http://fontane-nb.dariah.eu/tei-conf/heb/" "Mozilla/5.0 (Android; Mobile; rv:24.0) Gecko/24.0 Firefox/24.0"
2.206.1.123 - - [08/Oct/2013:19:12:32 +0200] "GET /tei-conf/heb/c07-network-experiment.json HTTP/1.1" 200 19372 "http://fontane-nb.dariah.eu/tei-conf/heb/" "Mozilla/5.0 (Android; Mobile; rv:24.0) Gecko/24.0 Firefox/24.0"
134.76.162.165 - - [09/Oct/2013:17:21:30 +0200] "GET /tei-conf/heb/ HTTP/1.1" 200 2539 "http://fontane-nb.dariah.eu/tei-conf/" "Mozilla/5.0 (X11; Linux x86_64) AppleWebKit/537.36 (KHTML, like Gecko) Ubuntu Chromium/28.0.1500.71 Chrome/28.0.1500.71 Safari/537.36"
134.76.162.165 - - [09/Oct/2013:17:21:30 +0200] "GET /tei-conf/heb/style.css HTTP/1.1" 404 991 "http://fontane-nb.dariah.eu/tei-conf/heb/" "Mozilla/5.0 (X11; Linux x86_64) AppleWebKit/537.36 (KHTML, like Gecko) Ubuntu Chromium/28.0.1500.71 Chrome/28.0.1500.71 Safari/537.36"
134.76.162.165 - - [09/Oct/2013:17:21:30 +0200] "GET /tei-conf/heb/script.js HTTP/1.1" 200 8637 "http://fontane-nb.dariah.eu/tei-conf/heb/" "Mozilla/5.0 (X11; Linux x86_64) AppleWebKit/537.36 (KHTML, like Gecko) Ubuntu Chromium/28.0.1500.71 Chrome/28.0.1500.71 Safari/537.36"
134.76.162.165 - - [09/Oct/2013:17:21:30 +0200] "GET /tei-conf/heb/packages.js HTTP/1.1" 200 1191 "http://fontane-nb.dariah.eu/tei-conf/heb/" "Mozilla/5.0 (X11; Linux x86_64) AppleWebKit/537.36 (KHTML, like Gecko) Ubuntu Chromium/28.0.1500.71 Chrome/28.0.1500.71 Safari/537.36"
134.76.162.165 - - [09/Oct/2013:17:21:30 +0200] "GET /tei-conf/heb/d3.layout.js HTTP/1.1" 200 48435 "http://fontane-nb.dariah.eu/tei-conf/heb/" "Mozilla/5.0 (X11; Linux x86_64) AppleWebKit/537.36 (KHTML, like Gecko) Ubuntu Chromium/28.0.1500.71 Chrome/28.0.1500.71 Safari/537.36"
134.76.162.165 - - [09/Oct/2013:17:21:30 +0200] "GET /tei-conf/heb/d3.js HTTP/1.1" 200 126501 "http://fontane-nb.dariah.eu/tei-conf/heb/" "Mozilla/5.0 (X11; Linux x86_64) AppleWebKit/537.36 (KHTML, like Gecko) Ubuntu Chromium/28.0.1500.71 Chrome/28.0.1500.71 Safari/537.36"
134.76.162.165 - - [09/Oct/2013:17:21:30 +0200] "GET /tei-conf/heb/c07-network-experiment.json HTTP/1.1" 200 19372 "http://fontane-nb.dariah.eu/tei-conf/heb/" "Mozilla/5.0 (X11; Linux x86_64) AppleWebKit/537.36 (KHTML, like Gecko) Ubuntu Chromium/28.0.1500.71 Chrome/28.0.1500.71 Safari/537.36"
